<?xml version="1.0" encoding="UTF-8" standalone="no"?>
<svg
   xmlns:dc="http://purl.org/dc/elements/1.1/"
   xmlns:cc="http://creativecommons.org/ns#"
   xmlns:rdf="http://www.w3.org/1999/02/22-rdf-syntax-ns#"
   xmlns:svg="http://www.w3.org/2000/svg"
   xmlns="http://www.w3.org/2000/svg"
   height="38.244999"
   width="21.247"
   viewBox="0 0 21.247 38.244999"
   version="1.1"
   id="svg5">
  <metadata
     id="metadata11">
    <rdf:RDF>
      <cc:Work
         rdf:about="">
        <dc:format>image/svg+xml</dc:format>
        <dc:type
           rdf:resource="http://purl.org/dc/dcmitype/StillImage" />
        <dc:title></dc:title>
      </cc:Work>
    </rdf:RDF>
  </metadata>
  <defs
     id="defs9" />
  <g
     id="surface1"
     transform="matrix(0,-1.0000006,0.99997944,0,-13.499717,43.122333)"
     style="fill:#c1d8ed;fill-opacity:1;stroke:#235aae;stroke-opacity:1">
    <path
       style="fill:#c1d8ed;fill-opacity:1;stroke:#235aae;stroke-opacity:1"
       d="M 24,34 42,14 H 6 Z"
       id="path2" />
  </g>
</svg>
